{
  "project_info": {
    "project_number": "922690738984",
    "firebase_url": "https://showme-13188.firebaseio.com",
    "project_id": "showme-13188",
    "storage_bucket": "showme-13188.appspot.com"
  },
  "client": [
    {
      "client_info": {
        "mobilesdk_app_id": "1:922690738984:android:f8d3d27bef1c2835",
        "android_client_info": {
          "package_name": "com.faci.lisa.showme"
        }
      },
      "oauth_client": [
        {
          "client_id": "922690738984-jb55ftq60gak8oh9d18gntgunucee21r.apps.googleusercontent.com",
          "client_type": 1,
          "android_info": {
            "package_name": "com.faci.lisa.showme",
            "certificate_hash": "a0d41c8a2ff1adf0ffa50e7a9dacb9b2f3b94815"
          }
        },
        {
          "client_id": "922690738984-akblan2e8m60qnlrumom514q652it8e2.apps.googleusercontent.com",
          "client_type": 3
        }
      ],
      "api_key": [
        {
          "current_key": "AIzaSyBiOA3Dt4svM6ovl6g47SyYh0_CuzE8gfY"
        }
      ],
      "services": {
        "analytics_service": {
          "status": 1
        },
        "appinvite_service": {
          "status": 2,
          "other_platform_oauth_client": [
            {
              "client_id": "922690738984-akblan2e8m60qnlrumom514q652it8e2.apps.googleusercontent.com",
              "client_type": 3
            }
          ]
        },
        "ads_service": {
          "status": 2
        }
      }
    }
  ],
  "configuration_version": "1"
}